// Jest Snapshot v1, https://goo.gl/fbAQLP

exports[`<Footer /> renders default 1`] = `
<DocumentFragment>
  <div
    class="footer"
  >
    © ReactNode Group 2018
  </div>
</DocumentFragment>
`;

exports[`<Footer /> should render "©ReactNode Group 2019" 1`] = `
<DocumentFragment>
  <div
    class="footer"
  >
    © ReactNode Group 2018
  </div>
</DocumentFragment>
`;
