// Jest Snapshot v1, https://goo.gl/fbAQLP

exports[`<EmptyState /> render default 1`] = `
<DocumentFragment>
  <div
    class="empty"
  >
    <div
      class="empty-icon"
    >
      emptyIcon
    </div>
    <p
      class="empty-title"
    >
      title
    </p>
    <p
      class="empty-subtitle"
    >
      subtitle
    </p>
    <div
      class="empty-action"
    >
      action
    </div>
  </div>
</DocumentFragment>
`;
