// Jest Snapshot v1, https://goo.gl/fbAQLP

exports[`<ShowCar /> renders default 1`] = `
<DocumentFragment>
  <div
    class="car-details"
  >
    <div
      class="car-details-body"
    >
      <button
        class="btn btn-default bi-clear"
        type="button"
      >
        Close
      </button>
      <div
        class="image-holder"
      >
        <img
          alt="A4"
          src=""
        />
      </div>
      <div
        class="pane"
      >
        <div
          class="l-pane"
        >
          <div
            class="card-wrapper"
          >
            <div>
              <div
                class="card-li card-title"
              >
                A4
              </div>
              <div
                class="card-li card-body"
              >
                Stock #1 - 1km - Petrol - red
              </div>
              <div
                class="card-li card-foot"
              >
                 This car is currently available and can be delivered as soon as
tomorrow morning. Please be aware that delivery times shown in
this page are not definitive and may change due to bad weather
conditions. 
              </div>
            </div>
            <div />
          </div>
        </div>
        <div
          class="r-pane"
        >
          <div
            class="card-wrapper card-border"
          >
            <div>
              <div
                class="card-li card-body"
              >
                If you like this car, click the button and
save it in your collection of favourite
items.
              </div>
              <div
                class="card-li card-foot"
              >
                 
                <button
                  class="btn btn-default"
                  type="button"
                >
                  Save
                </button>
                 
              </div>
            </div>
            <div />
          </div>
        </div>
      </div>
    </div>
  </div>
</DocumentFragment>
`;

exports[`<ShowCar /> should render "Close" to close model <Button /> 1`] = `
<DocumentFragment>
  <div
    class="car-details"
  >
    <div
      class="car-details-body"
    >
      <button
        class="btn btn-default bi-clear"
        type="button"
      >
        Close
      </button>
      <div
        class="image-holder"
      >
        <img
          alt="A4"
          src=""
        />
      </div>
      <div
        class="pane"
      >
        <div
          class="l-pane"
        >
          <div
            class="card-wrapper"
          >
            <div>
              <div
                class="card-li card-title"
              >
                A4
              </div>
              <div
                class="card-li card-body"
              >
                Stock #1 - 1km - Petrol - red
              </div>
              <div
                class="card-li card-foot"
              >
                 This car is currently available and can be delivered as soon as
tomorrow morning. Please be aware that delivery times shown in
this page are not definitive and may change due to bad weather
conditions. 
              </div>
            </div>
            <div />
          </div>
        </div>
        <div
          class="r-pane"
        >
          <div
            class="card-wrapper card-border"
          >
            <div>
              <div
                class="card-li card-body"
              >
                If you like this car, click the button and
save it in your collection of favourite
items.
              </div>
              <div
                class="card-li card-foot"
              >
                 
                <button
                  class="btn btn-default"
                  type="button"
                >
                  Save
                </button>
                 
              </div>
            </div>
            <div />
          </div>
        </div>
      </div>
    </div>
  </div>
</DocumentFragment>
`;

exports[`<ShowCar /> should render car manufacturer name 1`] = `
<DocumentFragment>
  <div
    class="car-details"
  >
    <div
      class="car-details-body"
    >
      <button
        class="btn btn-default bi-clear"
        type="button"
      >
        Close
      </button>
      <div
        class="image-holder"
      >
        <img
          alt="A4"
          src=""
        />
      </div>
      <div
        class="pane"
      >
        <div
          class="l-pane"
        >
          <div
            class="card-wrapper"
          >
            <div>
              <div
                class="card-li card-title"
              >
                A4
              </div>
              <div
                class="card-li card-body"
              >
                Stock #1 - 1km - Petrol - red
              </div>
              <div
                class="card-li card-foot"
              >
                 This car is currently available and can be delivered as soon as
tomorrow morning. Please be aware that delivery times shown in
this page are not definitive and may change due to bad weather
conditions. 
              </div>
            </div>
            <div />
          </div>
        </div>
        <div
          class="r-pane"
        >
          <div
            class="card-wrapper card-border"
          >
            <div>
              <div
                class="card-li card-body"
              >
                If you like this car, click the button and
save it in your collection of favourite
items.
              </div>
              <div
                class="card-li card-foot"
              >
                 
                <button
                  class="btn btn-default"
                  type="button"
                >
                  Save
                </button>
                 
              </div>
            </div>
            <div />
          </div>
        </div>
      </div>
    </div>
  </div>
</DocumentFragment>
`;

exports[`<ShowCar /> should render car model name, stock number, mileage, fule type, color 1`] = `
<DocumentFragment>
  <div
    class="car-details"
  >
    <div
      class="car-details-body"
    >
      <button
        class="btn btn-default bi-clear"
        type="button"
      >
        Close
      </button>
      <div
        class="image-holder"
      >
        <img
          alt="A4"
          src=""
        />
      </div>
      <div
        class="pane"
      >
        <div
          class="l-pane"
        >
          <div
            class="card-wrapper"
          >
            <div>
              <div
                class="card-li card-title"
              >
                A4
              </div>
              <div
                class="card-li card-body"
              >
                Stock #1 - 1km - Petrol - red
              </div>
              <div
                class="card-li card-foot"
              >
                 This car is currently available and can be delivered as soon as
tomorrow morning. Please be aware that delivery times shown in
this page are not definitive and may change due to bad weather
conditions. 
              </div>
            </div>
            <div />
          </div>
        </div>
        <div
          class="r-pane"
        >
          <div
            class="card-wrapper card-border"
          >
            <div>
              <div
                class="card-li card-body"
              >
                If you like this car, click the button and
save it in your collection of favourite
items.
              </div>
              <div
                class="card-li card-foot"
              >
                 
                <button
                  class="btn btn-default"
                  type="button"
                >
                  Save
                </button>
                 
              </div>
            </div>
            <div />
          </div>
        </div>
      </div>
    </div>
  </div>
</DocumentFragment>
`;
